…
## Exploratory Data Analysis

### Annual discoveries

The `annualExoDiscoveries()` function retrieves the latest exoplanet
data from NASA’s Exoplanet Archive.

``` r
# Retrieve latest exoplanet data
exoplanetData <- annualExoDiscoveries()
exoplanetData
```

    ## # A tibble: 4,462 × 20
    ##    pl_name    disc_year discoverymethod
    ##    <chr>          <int> <chr>          
    ##  1 OGLE-2016…      2020 Microlensing   
    ##  2 GJ 480 b        2020 Radial Velocity
    ##  3 Kepler-27…      2013 Transit        
    ##  4 Kepler-82…      2016 Transit        
    ##  5 K2-283 b        2018 Transit        
    ##  6 Kepler-47…      2016 Transit        
    ##  7 HAT-P-15 b      2010 Transit        
    ##  8 HD 149143…      2005 Radial Velocity
    ##  9 HD 210702…      2007 Radial Velocity
    ## 10 HIP 12961…      2010 Radial Velocity
    ## # … with 4,452 more rows, and 17 more
    ## #   variables: pl_orbper <dbl>,
    ## #   pl_rade <dbl>, pl_bmasse <dbl>,
    ## #   pl_radj <dbl>, pl_bmassj <dbl>,
    ## #   pl_eqt <dbl>, pl_dens <dbl>,
    ## #   st_spectype <chr>, st_teff <dbl>,
    ## #   st_lum <dbl>, …

``` r
# Print a subset of observations
exoplanetData
```

    ## # A tibble: 4,462 × 20
    ##    pl_name    disc_year discoverymethod
    ##    <chr>          <int> <chr>          
    ##  1 OGLE-2016…      2020 Microlensing   
    ##  2 GJ 480 b        2020 Radial Velocity
    ##  3 Kepler-27…      2013 Transit        
    ##  4 Kepler-82…      2016 Transit        
    ##  5 K2-283 b        2018 Transit        
    ##  6 Kepler-47…      2016 Transit        
    ##  7 HAT-P-15 b      2010 Transit        
    ##  8 HD 149143…      2005 Radial Velocity
    ##  9 HD 210702…      2007 Radial Velocity
    ## 10 HIP 12961…      2010 Radial Velocity
    ## # … with 4,452 more rows, and 17 more
    ## #   variables: pl_orbper <dbl>,
    ## #   pl_rade <dbl>, pl_bmasse <dbl>,
    ## #   pl_radj <dbl>, pl_bmassj <dbl>,
    ## #   pl_eqt <dbl>, pl_dens <dbl>,
    ## #   st_spectype <chr>, st_teff <dbl>,
    ## #   st_lum <dbl>, …
…
Of the known 4462 exoplanets, 75.5% were observed while transiting their
host star and temporarily reducing its brightness. Another 19.3% were
observed indirectly via the radial velocity method, whereby the planet
and its star orbit around a common center of gravity and prompt
noticeable Doppler shifts in the stellar spectrum.

``` r
circumbinaryPlanets <- annualExoDiscoveries(cb_flag = 1) 
circumbinaryPlanets
```

    ## # A tibble: 39 × 20
    ##    pl_name    disc_year discoverymethod
    ##    <chr>          <int> <chr>          
    ##  1 NSVS 1425…      2019 Eclipse Timing…
    ##  2 RR Cae b        2012 Eclipse Timing…
    ##  3 2MASS J19…      2015 Eclipse Timing…
    ##  4 SR 12 AB c      2010 Imaging        
    ##  5 MXB 1658-…      2017 Eclipse Timing…
    ##  6 Kepler-16…      2016 Transit        
    ##  7 VHS J1256…      2015 Imaging        
    ##  8 2MASS J01…      2013 Imaging        
    ##  9 Kepler-45…      2015 Transit        
    ## 10 Kepler-35…      2011 Transit        
    ## # … with 29 more rows, and 17 more
    ## #   variables: pl_orbper <dbl>,
    ## #   pl_rade <dbl>, pl_bmasse <dbl>,
    ## #   pl_radj <dbl>, pl_bmassj <dbl>,
    ## #   pl_eqt <dbl>, pl_dens <dbl>,
    ## #   st_spectype <chr>, st_teff <dbl>,
    ## #   st_lum <dbl>, …
…
``` r
metallicityData <- extendedDiscoveryProp %>% filter(st_metratio == "[Fe/H]" &
                                                      !is.na(pl_bmasse))
metallicityData %>% mutate(giantPlFlag = NA)
```

    ## # A tibble: 3,459 × 21
    ##    pl_name      disc_year discoverymethod
    ##    <chr>            <int> <chr>          
    ##  1 Kepler-276 c      2013 Transit        
    ##  2 Kepler-829 b      2016 Transit        
    ##  3 K2-283 b          2018 Transit        
    ##  4 Kepler-477 b      2016 Transit        
    ##  5 HAT-P-15 b        2010 Transit        
    ##  6 HD 149143 b       2005 Radial Velocity
    ##  7 HD 210702 b       2007 Radial Velocity
    ##  8 HIP 12961 b       2010 Radial Velocity
    ##  9 XO-5 b            2008 Transit        
    ## 10 HD 5608 b         2012 Radial Velocity
    ## # … with 3,449 more rows, and 18 more
    ## #   variables: pl_orbper <dbl>,
    ## #   pl_rade <dbl>, pl_bmasse <dbl>,
    ## #   pl_radj <dbl>, pl_bmassj <dbl>,
    ## #   pl_eqt <dbl>, pl_dens <dbl>,
    ## #   st_spectype <chr>, st_teff <dbl>,
    ## #   st_lum <dbl>, …
…
