…
Exploratory Data Analysis

Basic summaries

The annualExoDiscoveries() function retrieves the latest exoplanet data from NASA’s Exoplanet Archive.

# Retrieve latest exoplanet data
exoplanetData <- annualExoDiscoveries()

# Print a subset of observations
exoplanetData

## # A tibble: 4,501 × 19
##    pl_name      disc_year discoverymethod pl_orbper
##    <chr>            <int> <chr>               <dbl>
##  1 OGLE-2016-B…      2020 Microlensing        NA   
##  2 GJ 480 b          2020 Radial Velocity      9.57
##  3 Kepler-276 c      2013 Transit             31.9 
##  4 Kepler-829 b      2016 Transit              6.88
##  5 K2-283 b          2018 Transit              1.92
##  6 Kepler-477 b      2016 Transit             11.1 
##  7 HAT-P-15 b        2010 Transit             10.9 
##  8 HD 149143 b       2005 Radial Velocity      4.07
##  9 HD 210702 b       2007 Radial Velocity    354.  
## 10 HIP 12961 b       2010 Radial Velocity     57.4 
## # … with 4,491 more rows, and 15 more variables:
## #   pl_rade <dbl>, pl_bmasse <dbl>, pl_radj <dbl>,
## #   pl_bmassj <dbl>, pl_eqt <dbl>,
## #   st_spectype <chr>, st_teff <dbl>,
## #   st_lum <dbl>, pl_controv_flag <int>,
## #   pl_orbeccen <dbl>, pl_orbsmax <dbl>,
## #   st_mass <dbl>, st_metratio <chr>, …
…
planetClusters <- exoplanetData
planetClusters <- planetClusters %>% select(pl_bmasse, pl_bmassj) %>% filter()

metallicityData <- exoplanetData 
metallicityData <- metallicityData %>% select(st_metratio, st_met, pl_bmassj, pl_bmasse, pl_orbper) %>% 
  filter(st_metratio == "[Fe/H]" & !(is.na(pl_bmassj)) & (pl_bmassj >= 0.6))

metallicityData %>% mutate(category = NA)

## # A tibble: 849 × 6
##    st_metratio st_met pl_bmassj pl_bmasse pl_orbper
##    <chr>        <dbl>     <dbl>     <dbl>     <dbl>
##  1 [Fe/H]        0.22     1.94       617.     10.9 
##  2 [Fe/H]        0.29     1.33       423.      4.07
##  3 [Fe/H]        0.04     1.81       575.    354.  
##  4 [Fe/H]        0.05     1.19       378.      4.19
##  5 [Fe/H]        0.14     1.68       534.    780.  
##  6 [Fe/H]        0.41     3.74      1189.   4375   
##  7 [Fe/H]        0.18     0.899      286.      2.98
##  8 [Fe/H]       -0.46     3.88      1233.    479.  
##  9 [Fe/H]       -0.09     7.49      2380.    117.  
## 10 [Fe/H]       -0.03     1.99       632.    453.  
## # … with 839 more rows, and 1 more variable:
## #   category <lgl>
…
